[gd_scene load_steps=4 format=2]

[ext_resource path="res://script/player.gd" type="Script" id=1]
[ext_resource path="res://img/player.png" type="Texture" id=2]

[sub_resource type="CapsuleShape2D" id=1]

custom_solver_bias = 0.0
radius = 4.0
height = 6.0

[node name="player" type="KinematicBody2D"]

use_parent_material = true
input_pickable = false
collision_layer = 1
collision_mask = 1
collision/safe_margin = 0.08
script = ExtResource( 1 )
_sections_unfolded = [ "Material" ]

[node name="sprite" type="Sprite" parent="." index="0"]

use_parent_material = true
texture = ExtResource( 2 )
vframes = 2
hframes = 4
_sections_unfolded = [ "Material" ]

[node name="anim" type="AnimationPlayer" parent="." index="1"]

root_node = NodePath("..")
autoplay = ""
playback_process_mode = 1
playback_default_blend_time = 0.0
playback_speed = 1.0
blend_times = [  ]
_sections_unfolded = [ "Pause", "Playback Options" ]

[node name="camera" type="Camera2D" parent="." index="2"]

anchor_mode = 1
rotating = false
current = true
zoom = Vector2( 1, 1 )
limit_left = 0
limit_top = 0
limit_right = 10000000
limit_bottom = 10000000
limit_smoothed = false
drag_margin_h_enabled = true
drag_margin_v_enabled = true
smoothing_enabled = false
smoothing_speed = 5.0
offset_v = 0.0
offset_h = 0.0
drag_margin_left = 0.2
drag_margin_top = 0.2
drag_margin_right = 0.2
drag_margin_bottom = 0.2
editor_draw_screen = true
editor_draw_limits = false
editor_draw_drag_margin = false
_sections_unfolded = [ "Smoothing" ]

[node name="sound_jump" type="AudioStreamPlayer2D" parent="." index="3"]

stream = null
volume_db = 0.0
autoplay = false
max_distance = 2000.0
attenuation = 1.0
bus = "Master"
area_mask = 1

[node name="sound_shoot" type="AudioStreamPlayer2D" parent="." index="4"]

stream = null
volume_db = 0.0
autoplay = false
max_distance = 2000.0
attenuation = 1.0
bus = "Master"
area_mask = 1

[node name="CollisionShape2D" type="CollisionShape2D" parent="." index="5"]

position = Vector2( 0, 4 )
rotation = 1.57079
shape = SubResource( 1 )


